<?xml version="1.0" encoding="iso-8859-1"?>
<!-- Generator: Adobe Illustrator 19.0.0, SVG Export Plug-In . SVG Version: 6.00 Build 0)  -->
<svg version="1.1" id="Capa_1" xmlns="http://www.w3.org/2000/svg" xmlns:xlink="http://www.w3.org/1999/xlink" x="0px" y="0px"
	 viewBox="0 0 511.984 511.984" style="enable-background:new 0 0 511.984 511.984;" xml:space="preserve">
<path style="fill:#94C1FF;" d="M175.995,243.992c6.641,0,12-5.359,12-12s-5.359-12-12-12s-12,5.359-12,12
	C163.996,238.633,169.355,243.992,175.995,243.992z M459.987,387.988H51.999v-8V107.996c0-4.398,3.602-8,8-8h391.988
	c4.398,0,8,3.602,8,8v271.992L459.987,387.988L459.987,387.988z"/>
<rect x="347.993" y="347.992" style="fill:#D7E9FF;" width="79.996" height="39.999"/>
<rect x="347.993" y="347.992" style="fill:#FFFFFF;" width="8" height="39.999"/>
<g>
	<rect x="419.993" y="347.992" style="fill:#94C1FF;" width="7.998" height="39.999"/>
	<polygon style="fill:#94C1FF;" points="196.662,403.988 156.332,403.988 99.998,507.984 139.996,507.984 	"/>
</g>
<polygon style="fill:#D7E9FF;" points="152,411.987 99.998,507.984 107.997,507.984 160,411.987 "/>
<polygon style="fill:#94C1FF;" points="315.663,403.988 355.991,403.988 412.325,507.984 372.325,507.984 "/>
<polygon style="fill:#5C9EFF;" points="359.645,411.987 411.653,507.984 403.653,507.984 351.647,411.987 "/>
<rect x="235.993" y="4.002" style="fill:#94C1FF;" width="40" height="79.998"/>
<g>
	<path style="fill:#116FFF;" d="M412.223,367.988c-2.203,0-4.031-1.789-4.031-4c0-2.21,1.75-3.999,3.953-3.999h0.078
		c2.219,0,4,1.789,4,3.999C416.223,366.199,414.442,367.988,412.223,367.988z"/>
	<path style="fill:#116FFF;" d="M380.223,367.988c-2.203,0-4.031-1.789-4.031-4c0-2.21,1.75-3.999,3.953-3.999h0.078
		c2.219,0,4,1.789,4,3.999C384.223,366.199,382.442,367.988,380.223,367.988z"/>
	<path style="fill:#116FFF;" d="M396.223,375.988c-2.203,0-4.031-1.789-4.031-4s1.75-4,3.953-4h0.078c2.219,0,4,1.789,4,4
		S398.442,375.988,396.223,375.988z"/>
	<path style="fill:#116FFF;" d="M364.223,375.988c-2.203,0-4.031-1.789-4.031-4s1.75-4,3.953-4h0.078c2.219,0,4,1.789,4,4
		S366.442,375.988,364.223,375.988z"/>
	<path style="fill:#116FFF;" d="M427.987,383.988c-2.211,0-4-1.789-4-4v-27.999h-71.996v27.999c0,2.211-1.789,4-4,4s-4-1.789-4-4
		v-31.999c0-2.211,1.789-4,4-4h79.996c2.211,0,4,1.789,4,4v31.999C431.987,382.199,430.198,383.988,427.987,383.988z"/>
</g>
<path style="fill:#FFFFFF;" d="M187.995,231.993c0,6.64-5.359,12-12,12s-12-5.359-12-12s5.359-12,12-12
	S187.995,225.352,187.995,231.993z"/>
<g>
	<path style="fill:#D7E9FF;" d="M451.987,99.997H59.999c-4.398,0-8,3.602-8,8v271.992v8h-16v-8V99.997c0-8.883,7.121-16,16-16
		h183.994h40h183.994c8.875,0,16,7.117,16,16v279.991v8h-16v-8V107.996C459.987,103.598,456.386,99.997,451.987,99.997z"/>
	<path style="fill:#D7E9FF;" d="M59.999,107.996c0-4.398,3.602-8,8-8h-8c-4.398,0-8,3.602-8,8v279.992h8
		C59.999,387.988,59.999,107.996,59.999,107.996z"/>
</g>
<g>
	<path style="fill:#5C9EFF;" d="M451.987,107.996c0-4.398-3.602-8-8-8h8c4.398,0,8,3.602,8,8v279.992h-8V107.996z"/>
	<polygon style="fill:#5C9EFF;" points="360.317,411.987 355.991,403.988 315.663,403.988 320.022,411.987 	"/>
	<polygon style="fill:#5C9EFF;" points="192.304,411.987 196.662,403.988 156.332,403.988 152,411.987 	"/>
	<rect x="235.993" y="75.992" style="fill:#5C9EFF;" width="40" height="8"/>
</g>
<rect x="20.003" y="387.992" style="fill:#D7E9FF;" width="471.99" height="16"/>
<rect x="20.003" y="387.992" style="fill:#FFFFFF;" width="16" height="16"/>
<rect x="475.983" y="387.992" style="fill:#94C1FF;" width="15.998" height="16"/>
<rect x="235.993" y="4.002" style="fill:#D7E9FF;" width="8" height="71.998"/>
<rect x="267.993" y="4.002" style="fill:#5C9EFF;" width="8" height="71.998"/>
<g>
	<path style="fill:#116FFF;" d="M475.987,383.988c-2.211,0-4-1.789-4-4V99.997c0-2.211,1.789-4,4-4s4,1.789,4,4v279.991
		C479.987,382.199,478.198,383.988,475.987,383.988z"/>
	<path style="fill:#116FFF;" d="M36,383.988c-2.211,0-4-1.789-4-4V99.997c0-2.211,1.789-4,4-4c2.21,0,4,1.789,4,4v279.991
		C39.999,382.199,38.21,383.988,36,383.988z"/>
	<path style="fill:#116FFF;" d="M235.993,80.716c-2.211,0-4-1.789-4-4V4c0-2.211,1.789-4,4-4s4,1.789,4,4v72.716
		C239.993,78.927,238.204,80.716,235.993,80.716z"/>
	<path style="fill:#116FFF;" d="M275.993,80.716c-2.211,0-4-1.789-4-4V4c0-2.211,1.789-4,4-4s4,1.789,4,4v72.716
		C279.993,78.927,278.204,80.716,275.993,80.716z"/>
	<path style="fill:#116FFF;" d="M275.993,8h-40c-2.211,0-4-1.789-4-4s1.789-4,4-4h40c2.211,0,4,1.789,4,4S278.204,8,275.993,8z"/>
	<path style="fill:#116FFF;" d="M139.996,511.984H99.997c-2.211,0-4-1.789-4-4s1.789-4,4-4h39.999c2.211,0,4,1.789,4,4
		S142.207,511.984,139.996,511.984z"/>
	<path style="fill:#116FFF;" d="M99.994,511.984c-0.648,0-1.305-0.156-1.914-0.492c-1.938-1.055-2.652-3.484-1.594-5.422
		l52.397-95.997c1.059-1.945,3.48-2.664,5.43-1.594c1.937,1.055,2.652,3.484,1.594,5.422l-52.397,95.997
		C102.783,511.234,101.411,511.984,99.994,511.984z"/>
	<path style="fill:#116FFF;" d="M123.993,511.984c-0.648,0-1.301-0.156-1.91-0.484c-1.941-1.062-2.656-3.492-1.598-5.43
		l26.159-47.998c1.055-1.938,3.48-2.656,5.426-1.602c1.941,1.062,2.656,3.492,1.598,5.43l-26.16,47.998
		C126.782,511.226,125.411,511.984,123.993,511.984z"/>
	<path style="fill:#116FFF;" d="M139.993,511.984c-0.645,0-1.301-0.156-1.91-0.484c-1.941-1.062-2.656-3.492-1.598-5.43
		l52.397-95.997c1.055-1.945,3.492-2.664,5.43-1.594c1.937,1.055,2.652,3.484,1.594,5.422l-52.397,95.997
		C142.782,511.226,141.41,511.984,139.993,511.984z"/>
	<path style="fill:#116FFF;" d="M411.989,511.984h-40c-2.211,0-4-1.789-4-4s1.789-4,4-4h40c2.211,0,4,1.789,4,4
		S414.2,511.984,411.989,511.984z"/>
	<path style="fill:#116FFF;" d="M411.989,511.984c-1.414,0-2.781-0.758-3.516-2.086l-52.312-95.997
		c-1.061-1.938-0.342-4.367,1.594-5.43c1.945-1.047,4.375-0.328,5.422,1.602l52.328,95.997c1.055,1.938,0.344,4.367-1.602,5.43
		C413.294,511.828,412.638,511.984,411.989,511.984z"/>
	<path style="fill:#116FFF;" d="M371.989,511.984c-1.414,0-2.781-0.75-3.516-2.086l-52.389-95.997
		c-1.062-1.938-0.344-4.367,1.594-5.422c1.938-1.07,4.367-0.352,5.422,1.594l52.404,95.997c1.055,1.938,0.344,4.367-1.602,5.43
		C373.294,511.828,372.638,511.984,371.989,511.984z"/>
	<path style="fill:#116FFF;" d="M369.833,463.986c-1.422,0-2.789-0.75-3.516-2.086l-21.842-39.999
		c-1.055-1.938-0.344-4.367,1.594-5.422c1.938-1.07,4.375-0.352,5.438,1.594l21.834,39.999c1.055,1.938,0.344,4.367-1.594,5.422
		C371.138,463.83,370.481,463.986,369.833,463.986z"/>
	<path style="fill:#116FFF;" d="M354.554,479.985H157.437c-2.21,0-4-1.789-4-4s1.789-4,4-4h197.116c2.201,0,3.998,1.789,3.998,4
		S356.755,479.985,354.554,479.985z"/>
	<path style="fill:#116FFF;" d="M491.985,407.987H20c-2.211,0-4-1.789-4-3.999v-16c0-2.211,1.789-4,4-4h471.985c2.211,0,4,1.789,4,4
		v16C495.985,406.198,494.196,407.987,491.985,407.987z M24,399.988h463.985v-8H24V399.988z"/>
	<path style="fill:#116FFF;" d="M36,103.997c-2.211,0-4-1.789-4-4c0-11.031,8.972-20,20-20c2.211,0,4,1.789,4,4c0,2.21-1.789,4-4,4
		c-6.617,0-12,5.383-12,12C39.999,102.208,38.21,103.997,36,103.997z"/>
	<path style="fill:#116FFF;" d="M475.987,103.997c-2.211,0-4-1.789-4-4c0-6.617-5.383-12-12-12c-2.211,0-4-1.789-4-4s1.789-4,4-4
		c11.031,0,20,8.968,20,20C479.987,102.208,478.198,103.997,475.987,103.997z"/>
	<path style="fill:#116FFF;" d="M459.987,87.997H51.999c-2.211,0-4-1.789-4-4s1.789-4,4-4h407.988c2.211,0,4,1.789,4,4
		C463.987,86.208,462.198,87.997,459.987,87.997z"/>
	<path style="fill:#116FFF;" d="M51.999,383.988c-2.211,0-4-1.789-4-4V107.996c0-2.21,1.789-4,4-4s4,1.789,4,4v271.992
		C55.999,382.199,54.21,383.988,51.999,383.988z"/>
	<path style="fill:#116FFF;" d="M51.999,111.996c-2.211,0-4-1.789-4-4c0-6.617,5.383-12,12-12c2.211,0,4,1.789,4,4s-1.789,4-4,4
		c-2.207,0-4,1.797-4,4C55.999,110.207,54.21,111.996,51.999,111.996z"/>
	<path style="fill:#116FFF;" d="M459.987,111.996c-2.211,0-4-1.789-4-4c0-2.203-1.797-4-4-4c-2.211,0-4-1.789-4-4s1.789-4,4-4
		c6.617,0,12,5.383,12,12C463.987,110.207,462.198,111.996,459.987,111.996z"/>
	<path style="fill:#116FFF;" d="M451.987,103.997H59.999c-2.21,0-4-1.789-4-4s1.789-4,4-4h391.988c2.211,0,4,1.789,4,4
		S454.198,103.997,451.987,103.997z"/>
	<path style="fill:#116FFF;" d="M459.987,383.988c-2.211,0-4-1.789-4-4V107.996c0-2.21,1.789-4,4-4s4,1.789,4,4v271.992
		C463.987,382.199,462.198,383.988,459.987,383.988z"/>
	<path style="fill:#116FFF;" d="M171.995,375.988H91.998c-2.21,0-4-1.789-4-4s1.789-4,4-4h79.998c2.211,0,4,1.789,4,4
		S174.206,375.988,171.995,375.988z"/>
	<path style="fill:#116FFF;" d="M255.993,79.997c-2.211,0-4-1.789-4-4V43.998c0-2.21,1.789-4,4-4c2.211,0,4,1.789,4,4v31.999
		C259.993,78.208,258.204,79.997,255.993,79.997z"/>
	<path style="fill:#116FFF;" d="M150.157,463.986c-0.504,0-1.016-0.094-1.508-0.297c-2.047-0.828-3.031-3.164-2.195-5.211
		c2.375-5.852,10.789-15.523,25.448-10.258c2.082,0.742,3.164,3.039,2.418,5.117s-3.039,3.133-5.113,2.414
		c-11.05-3.977-14.937,4.734-15.347,5.742C153.231,463.049,151.735,463.986,150.157,463.986z"/>
	<path style="fill:#116FFF;" d="M175.995,247.992c-8.824,0-16-7.179-16-15.999c0-8.82,7.175-16,16-16s16,7.18,16,16
		C191.995,240.813,184.82,247.992,175.995,247.992z M175.995,223.993c-4.41,0-8,3.586-8,8s3.59,8,8,8s8-3.586,8-8
		S180.406,223.993,175.995,223.993z"/>
	<path style="fill:#116FFF;" d="M175.995,263.992h-3.762c-2.211,0-4-1.789-4-4s1.789-4,4-4h3.762
		c42.429,0,71.998-12.648,71.998-23.999c0-11.352-29.569-24-71.998-24h-4c-2.211,0-4-1.789-4-4c0-2.21,1.789-4,4-4h4
		c38.78,0,79.998,11.218,79.998,31.999S214.776,263.992,175.995,263.992z"/>
	<path style="fill:#116FFF;" d="M123.919,256.39c-0.434,0-0.879-0.07-1.312-0.219c-17.16-5.969-26.609-14.554-26.609-24.179
		c0-9.734,9.484-18.32,26.71-24.187c2.089-0.688,4.363,0.414,5.074,2.5c0.715,2.093-0.406,4.367-2.496,5.078
		c-13.332,4.539-21.289,10.75-21.289,16.609c0,5.789,7.938,12,21.234,16.616c2.086,0.727,3.191,3.008,2.465,5.094
		C127.122,255.359,125.575,256.39,123.919,256.39z"/>
	<path style="fill:#116FFF;" d="M201.35,247.992c-0.672,0-1.352-0.172-1.973-0.523c-1.922-1.094-2.594-3.531-1.5-5.453
		c4.418-7.765,8.211-15.664,11.273-23.484c0.805-2.062,3.137-3.078,5.184-2.266c2.055,0.805,3.07,3.125,2.262,5.188
		c-3.199,8.172-7.16,16.421-11.766,24.515C204.092,247.265,202.741,247.992,201.35,247.992z"/>
	<path style="fill:#116FFF;" d="M143.907,303.326c-3.305,0-5.91-0.875-7.906-2.023c-4.691-2.726-10.042-9.366-8.957-25.576
		c1.223-16.742,8.968-38.5,21.253-59.733c6.164-10.703,13.312-20.866,20.667-29.405c18.445-21.272,36.015-30.218,47.019-23.905
		c8.14,4.75,10.878,16.273,7.953,33.343c-0.371,2.18-2.395,3.664-4.617,3.273c-2.176-0.375-3.641-2.445-3.266-4.617
		c2.246-13.117,0.762-22.257-4.074-25.077c-5.887-3.367-19.601,2.195-36.96,22.21c-7.027,8.156-13.875,17.906-19.796,28.179
		c-11.531,19.929-19.078,40.968-20.199,56.287c-0.633,9.43,1.137,15.867,4.98,18.094c4.434,2.547,12.277-0.094,21.554-7.234
		c1.746-1.336,4.257-1.016,5.609,0.734c1.344,1.75,1.02,4.258-0.734,5.609C156.738,300.943,149.368,303.326,143.907,303.326z"/>
	<path style="fill:#116FFF;" d="M139.118,223.993c-1.598,0-3.105-0.961-3.723-2.539c-11.515-29.319-11.292-51.834,0.586-58.756
		c5.324-3.07,14.918-4.18,30.468,7.898c1.746,1.352,2.062,3.867,0.707,5.609c-1.352,1.75-3.859,2.078-5.613,0.703
		c-9.265-7.195-17.121-9.875-21.55-7.289c-6.402,3.726-8.257,20.64,2.848,48.912c0.809,2.055-0.203,4.375-2.262,5.188
		C140.098,223.907,139.606,223.993,139.118,223.993z"/>
	<path style="fill:#116FFF;" d="M208.002,303.357c-18.109,0-42.991-26.397-59.709-55.365c-0.395-0.625-0.859-1.461-1.234-2.211
		c-0.988-1.976-0.188-4.375,1.789-5.367c1.969-1,4.379-0.18,5.367,1.789c0.266,0.531,0.598,1.133,0.93,1.664
		c21.261,36.827,47.025,56.123,56.865,50.491c3.82-2.211,5.59-8.648,4.953-18.102c-0.148-2.202,1.52-4.108,3.722-4.257
		c2.32-0.164,4.113,1.523,4.262,3.727c1.086,16.21-4.266,22.851-8.945,25.568C213.541,302.701,210.858,303.357,208.002,303.357z"/>
	<path style="fill:#116FFF;" d="M403.989,191.994H283.993c-2.211,0-4-1.789-4-4s1.789-4,4-4h119.996c2.211,0,4,1.789,4,4
		S406.2,191.994,403.989,191.994z"/>
	<path style="fill:#116FFF;" d="M403.989,223.993H283.993c-2.211,0-4-1.789-4-4s1.789-4,4-4h119.996c2.211,0,4,1.789,4,4
		S406.2,223.993,403.989,223.993z"/>
	<path style="fill:#116FFF;" d="M403.989,255.992H283.993c-2.211,0-4-1.789-4-4s1.789-4,4-4h119.996c2.211,0,4,1.789,4,4
		S406.2,255.992,403.989,255.992z"/>
	<path style="fill:#116FFF;" d="M339.991,287.991h-55.998c-2.211,0-4-1.789-4-4s1.789-4,4-4h55.998c2.211,0,4,1.789,4,4
		S342.202,287.991,339.991,287.991z"/>
</g>
<g>
</g>
<g>
</g>
<g>
</g>
<g>
</g>
<g>
</g>
<g>
</g>
<g>
</g>
<g>
</g>
<g>
</g>
<g>
</g>
<g>
</g>
<g>
</g>
<g>
</g>
<g>
</g>
<g>
</g>
</svg>
