<?xml version="1.0" encoding="iso-8859-1"?>
<!-- Generator: Adobe Illustrator 19.0.0, SVG Export Plug-In . SVG Version: 6.00 Build 0)  -->
<svg version="1.1" id="Capa_1" xmlns="http://www.w3.org/2000/svg" xmlns:xlink="http://www.w3.org/1999/xlink" x="0px" y="0px"
	 viewBox="0 0 512 512" style="enable-background:new 0 0 512 512;" xml:space="preserve">
<g>
	<g>
		<g>
			<path d="M295,497h-13.5v-76.53c0-11.414-8.189-20.95-19-23.042v-37.546c20.171-1.319,36.178-18.149,36.178-38.647V286.5
				c0-4.143-3.357-7.5-7.5-7.5s-7.5,3.357-7.5,7.5v34.733c0,13.085-10.646,23.73-23.73,23.73h-4.948
				c-0.249,0-0.495,0.012-0.738,0.036h-20.262c-4.143,0-7.5,3.357-7.5,7.5s3.357,7.5,7.5,7.5h13.5v37h-95v-37h13.5
				c4.143,0,7.5-3.357,7.5-7.5s-3.357-7.5-7.5-7.5h-20.262c-0.243-0.024-0.489-0.036-0.738-0.036h-1.594
				c-13.085,0-23.73-10.646-23.73-23.73v-38.997c0-2.495-1.24-4.826-3.31-6.22l-57.729-38.893c-3.29-2.216-5.481-5.588-6.171-9.496
				c-0.69-3.905,0.219-7.829,2.559-11.05c4.525-6.227,13.604-7.655,20.237-3.187l32.723,22.045c2.3,1.551,5.267,1.705,7.713,0.401
				c2.448-1.303,3.978-3.849,3.978-6.621V166.5c0-4.143-3.357-7.5-7.5-7.5s-7.5,3.357-7.5,7.5v48.621l-21.031-14.169
				c-13.254-8.931-31.536-5.876-40.754,6.809c-4.755,6.543-6.6,14.525-5.195,22.477c1.404,7.952,5.865,14.816,12.562,19.327
				l54.419,36.662v35.007c0,19.349,14.261,35.429,32.824,38.281v39.066c-8.768,3.404-15,11.932-15,21.889V497h-13.501
				c-4.143,0-7.5,3.357-7.5,7.5s3.357,7.5,7.5,7.5h186c4.143,0,7.5-3.357,7.5-7.5S299.143,497,295,497z M266.5,497h-129v-76.53
				c0-4.67,3.8-8.47,8.47-8.47h112.06c4.67,0,8.47,3.8,8.47,8.47V497z"/>
			<path d="M457.179,150h-81.355c-9.995,0-18.146,8.045-18.319,18h-10.051L327.25,80.615L346.271,58h11.962
				c4.042,23.258,24.372,41,48.769,41c27.294,0,49.5-22.206,49.5-49.5S434.294,0,407,0c-25.091,0-45.882,18.767-49.074,43h-14.813
				c-4.054,0-7.528,2.521-8.94,6.078l-18.208,21.65h-86.465V19.566C229.501,8.777,220.724,0,209.935,0H56.066
				C45.277,0,36.501,8.777,36.501,19.566v68.867c0,10.79,8.777,19.567,19.566,19.567h48.609v28.5c0,4.143,3.357,7.5,7.5,7.5
				s7.5-3.357,7.5-7.5V90.356c0-8.191,6.665-14.856,14.857-14.856c8.191,0,14.856,6.665,14.856,14.87l0.017,10.143
				c0,0.006,0,0.011,0,0.017l0.109,65.5c-0.01,0.155-0.015,0.312-0.015,0.47v21c0,4.143,3.357,7.5,7.5,7.5s7.5-3.357,7.5-7.5
				v-20.584c0.898-7.455,7.198-13.048,14.746-13.048c8.192,0,14.857,6.665,14.857,14.857v19.938c0,4.143,3.357,7.5,7.5,7.5h0.137
				c4.143,0,7.5-3.357,7.5-7.5v-19.938c0-8.192,6.665-14.857,14.857-14.857c8.191,0,14.856,6.665,14.856,14.857v19.938
				c0,4.143,3.357,7.5,7.5,7.5h0.138c4.143,0,7.5-3.357,7.5-7.5v-19.801c0-8.268,6.727-14.994,14.994-14.994
				c8.267,0,14.993,6.727,14.993,14.96l-0.401,87.639c-0.019,4.142,3.323,7.516,7.466,7.534h0.035c4.126,0,7.48-3.335,7.499-7.466
				l0.401-87.673c0-16.539-13.455-29.994-29.993-29.994c-8.965,0-17.024,3.954-22.525,10.209
				c-5.477-6.253-13.517-10.209-22.463-10.209c-8.926,0-16.95,3.938-22.426,10.166c-5.476-6.229-13.5-10.166-22.426-10.166
				c-5.358,0-10.404,1.404-14.77,3.882L164.42,108h45.515c10.789,0,19.566-8.777,19.566-19.566v-2.162h83.662l20.407,88.269
				c0.572,4.759,4.635,8.46,9.545,8.46H357.5v234.678c0,10.103,8.22,18.322,18.322,18.322h81.355
				c10.103,0,18.322-8.22,18.322-18.322V168.322C475.5,158.22,467.281,150,457.179,150z M407,15c19.023,0,34.5,15.477,34.5,34.5
				S426.023,84,407,84s-34.5-15.477-34.5-34.5S387.977,15,407,15z M209.935,93h-45.54l-0.004-2.643
				c0-16.464-13.394-29.857-29.857-29.857s-29.856,13.394-29.856,29.856V93H56.066c-2.518,0-4.566-2.049-4.566-4.566V19.566
				c0-2.518,2.049-4.566,4.566-4.566h153.867c2.518,0,4.566,2.049,4.566,4.566v68.868h0.001C214.501,90.952,212.451,93,209.935,93z
				 M372.5,168.322c0-1.832,1.49-3.322,3.322-3.322h81.355c1.832,0,3.322,1.49,3.322,3.322V201H372.5V168.322z M460.502,417.678
				H460.5c0,1.832-1.49,3.322-3.322,3.322h-81.355c-1.832,0-3.322-1.49-3.322-3.322V216h88V417.678z"/>
			<path d="M387,258h8c4.143,0,7.5-3.357,7.5-7.5s-3.357-7.5-7.5-7.5h-8c-4.143,0-7.5,3.357-7.5,7.5S382.857,258,387,258z"/>
			<path d="M416,258h30c4.143,0,7.5-3.357,7.5-7.5s-3.357-7.5-7.5-7.5h-30c-4.143,0-7.5,3.357-7.5,7.5S411.857,258,416,258z"/>
			<path d="M446,276h-58c-4.143,0-7.5,3.357-7.5,7.5s3.357,7.5,7.5,7.5h58c4.143,0,7.5-3.357,7.5-7.5S450.143,276,446,276z"/>
			<path d="M446,309h-8c-4.143,0-7.5,3.357-7.5,7.5s3.357,7.5,7.5,7.5h8c4.143,0,7.5-3.357,7.5-7.5S450.143,309,446,309z"/>
			<path d="M387,324h30c4.143,0,7.5-3.357,7.5-7.5s-3.357-7.5-7.5-7.5h-30c-4.143,0-7.5,3.357-7.5,7.5S382.857,324,387,324z"/>
			<path d="M446,342h-58c-4.143,0-7.5,3.357-7.5,7.5s3.357,7.5,7.5,7.5h58c4.143,0,7.5-3.357,7.5-7.5S450.143,342,446,342z"/>
			<path d="M387,390h8c4.143,0,7.5-3.357,7.5-7.5s-3.357-7.5-7.5-7.5h-8c-4.143,0-7.5,3.357-7.5,7.5S382.857,390,387,390z"/>
			<path d="M446,375h-30c-4.143,0-7.5,3.357-7.5,7.5s3.357,7.5,7.5,7.5h30c4.143,0,7.5-3.357,7.5-7.5S450.143,375,446,375z"/>
			<path d="M394.5,65.5c1.919,0,3.839-0.732,5.304-2.196c2.929-2.93,2.929-7.678,0-10.607l-3.197-3.196l2.697-2.696
				c2.929-2.93,2.929-7.678,0-10.607c-2.93-2.928-7.678-2.928-10.607,0l-8,8c-2.929,2.93-2.929,7.678,0,10.607l8.5,8.5
				C390.661,64.768,392.581,65.5,394.5,65.5z"/>
			<path d="M414.197,63.304c1.465,1.464,3.385,2.196,5.304,2.196c1.919,0,3.839-0.732,5.304-2.196l8.5-8.5
				c2.929-2.93,2.929-7.678,0-10.607l-8-8c-2.93-2.928-7.678-2.928-10.607,0c-2.929,2.93-2.929,7.678,0,10.607l2.697,2.696
				l-3.197,3.196C411.268,55.626,411.268,60.374,414.197,63.304z"/>
		</g>
	</g>
</g>
<g>
</g>
<g>
</g>
<g>
</g>
<g>
</g>
<g>
</g>
<g>
</g>
<g>
</g>
<g>
</g>
<g>
</g>
<g>
</g>
<g>
</g>
<g>
</g>
<g>
</g>
<g>
</g>
<g>
</g>
</svg>
